290328 626976 509
137146 850072 525
891880 878664 445
59992 189275 383
479471 703388 509
332018 69607 443
665598 495120 509
457388 586127 470
476347 392028 449
56943 969241 525
261388 253140 363
129642 166157 383
246859 282647 407
295131 271862 389
583222 386101 470
410875 801965 509
403533 406497 405
662929 992846 525
255542 143279 443
106222 391040 443
889942 250367 525
168250 677487 509
67788 79199 351
33010 758644 509
874970 320741 525
640779 439458 509
722182 757872 424
229896 397396 443
107697 375752 443
520339 440073 470
337097 726649 509
93582 327403 443
441528 129183 449
320489 520240 470
73373 767550 509
483 400379 443
401178 562465 470
576034 641509 509
660574 530600 509
936226 288675 525
481105 526962 470
628489 664164 429
111865 179845 383
119633 567153 470
607025 322821 470
328977 308634 384
156584 851933 525
165887 868261 525
25856 106983 354
422437 435326 418
493492 62655 449
852292 560496 525
244404 999827 525
363864 287897 441
694701 170206 509
782520 735951 468
272950 566352 470
501412 369322 449
518965 548473 452
387053 481909 449
293546 597409 470
88356 45874 351
641641 688021 442
438044 7161 449
518458 853821 525
40767 673377 509
656707 332170 509
252210 506938 449
934970 970364 507
122523 64772 354
165650 42472 383
688192 336032 509
26488 261306 443
96249 335373 443
236883 405148 441
259444 388381 441
564777 720767 509
381249 598403 470
898292 931580 476
974630 40006 525
123474 378778 443
524240 589662 452
187294 710603 509
531462 229035 470
126112 539397 470
728843 948150 525
324619 900238 525
468436 872749 525
431733 262172 449
194881 993958 525
139084 411076 449
606159 860701 525
333182 776491 509
117780 763246 509
113524 151927 375
451468 102835 449
306369 422254 449
934547 224486 525
257489 907152 525
748917 746962 362
345892 186732 443
799419 50366 509
560703 848761 525
948151 910792 507
422923 674602 509
603372 840802 525
183984 481417 449
35482 649689 509
168815 898030 525
288657 440799 449
784173 311125 509
366524 825088 509
85044 895054 525
79855 922336 525
515496 982178 525
611348 555925 434
107140 322109 443
53620 866708 525
914048 166119 525
440184 504118 444
277161 68875 443
69065 771706 509
133241 973478 525
578004 935141 525
165007 380594 443
995139 873632 507
564368 417018 470
790453 479750 509
256865 243595 363
635953 100347 509
800736 731901 468
524066 667017 509
827107 992145 525
893010 594477 525
626591 126159 509
473524 372291 449
588640 455234 470
327765 915188 525
192215 949730 525
629025 866037 525
411606 300041 449
148808 680226 509
736040 539570 509
481762 122681 449
42258 741623 509
331661 816991 509
455261 143245 449
622275 918027 525
354660 186353 443
968494 589457 525
860670 324255 525
372278 805790 509
679539 186704 509
571629 894689 525
544771 388153 470
430738 94338 449
568108 512391 452
6166 206998 383
66998 874881 525
435602 981407 525
644657 513231 509
647053 364173 509
75939 402988 443
857154 594328 525
14014 692774 509
266885 571776 470
358384 994833 525
791976 314998 509
150756 706630 509
110909 155000 375
899326 306737 525
390059 501671 449
526622 704459 509
366539 15909 443
657253 665865 442
599510 578042 434
315190 755404 509
348882 673400 509
756652 962 509
557298 743271 509
610928 659462 509
30089 964118 525
143666 448399 449
894836 562338 525
226870 598946 470
651147 864330 525
438035 366251 449
937690 712451 525
979600 266335 525
116451 232052 443
528264 699466 509
344771 480305 449
225128 795235 509
583080 423090 470
38493 734109 509
181095 608 383
565190 197447 470
455770 701398 509
381110 42541 443
118521 802645 509
86935 766496 509
338296 502813 449
735233 839932 525
28105 138115 354
861315 366848 525
598515 555854 434
396794 980274 525
77613 806331 509
609982 610235 341
62341 662526 509
556084 467559 470
969215 762165 525
111609 455847 449
695287 380298 509
463584 199524 449
686583 297925 509
921162 350133 525
255863 94060 443
772789 290746 509
972242 938009 507
696943 253575 509
641720 778139 504
631009 304126 509
574222 626908 509
338749 458369 449
912420 293312 525
388392 543588 470
720906 443237 509
305034 864381 525
443900 508085 444
815088 612445 509
782277 722254 468
984534 844678 507
224221 979299 525
460334 315776 449
955387 311739 525
280606 643090 509
59065 368070 443
990879 170999 525
56525 695168 509
612868 56497 470
753385 515730 509
272021 581921 470
208534 454281 449
31443 238647 443
331288 158538 443
73119 645453 509
332549 151811 443
870249 620757 525
265218 110130 443
