931634 26479 525
557178 260330 470
345811 366965 441
873716 369795 525
758973 670271 504
836238 975035 525
521423 790330 509
867044 344322 525
517871 314771 470
967795 266797 525
962148 997767 458
113475 722582 509
65937 959381 525
228337 66593 386
45135 967509 525
359128 467737 449
620325 950627 525
834972 939000 525
287591 868083 525
154514 679429 509
778664 518408 509
9871 552024 470
729181 435904 509
866764 8313 525
793295 526407 509
269875 642983 509
213948 559724 470
642632 72116 509
762187 972048 525
310775 531469 470
110635 648058 509
266614 783704 509
255559 20808 443
184982 417526 449
331751 572609 470
95788 733608 509
954790 924421 507
590806 486157 470
547980 946725 525
106860 583753 470
759112 352207 509
94597 665858 509
878795 605538 525
125923 209348 383
256067 276832 407
442556 729477 509
39922 985281 525
453606 478338 444
896043 90916 525
403422 15623 443
146473 490081 449
309748 690062 509
649100 682746 442
298327 208767 443
289777 335919 384
730169 126870 509
102444 952176 525
5342 609635 470
658725 2669 509
34054 329642 443
280332 615498 470
549749 617450 447
932666 756846 525
699292 747003 504
70885 373307 443
231397 575312 470
243904 76056 443
675552 812189 504
429 107753 354
466821 706514 509
248928 427936 449
929317 983557 507
114321 662573 509
194546 128109 383
572573 762577 509
51815 40906 314
504506 830992 509
421781 13155 449
22805 942725 525
989004 495271 525
549258 928527 525
573666 60277 470
376191 277609 441
761507 136503 509
611166 610200 341
775253 899049 525
226093 787901 509
748198 823992 468
258955 280842 407
750132 99525 509
890441 701137 525
223097 614344 470
560546 973176 525
737298 112593 509
247769 487177 449
123690 687466 509
755758 795366 468
539079 179801 470
767420 407642 509
673969 62274 509
769266 833098 468
426554 25768 449
836395 202634 509
356591 289620 441
906797 221516 525
712665 14094 509
291323 478643 449
230000 217608 368
671191 31109 509
156125 665307 509
505560 195903 449
490 309289 443
449379 830083 509
659017 942625 525
694345 106157 509
558398 408928 470
980349 415875 525
133225 848885 525
474480 363978 449
899508 223229 525
5899 859765 525
566933 96941 470
175048 852409 525
325824 813678 509
328494 968316 525
441197 222435 449
54119 928427 525
626369 333510 509
695359 800427 504
411164 268080 449
935739 483175 525
76158 395639 443
35348 317960 443
200022 898289 525
809103 620163 509
885097 674903 525
80570 778635 509
942491 391941 525
681028 178152 509
49310 107550 354
411514 580832 470
581172 232077 470
180314 892945 525
573922 619878 447
518870 508960 470
241395 461738 449
956070 381324 525
115237 121386 349
904586 901468 401
314741 500034 449
705691 184183 509
369282 327559 441
201037 302034 443
363104 97339 443
541188 385603 470
527356 60541 470
517711 494709 470
524775 952702 525
200517 818164 509
170241 399853 443
851578 301992 525
636291 330101 509
539550 852767 525
345896 418140 449
683763 24259 509
403385 330252 441
227498 671851 509
456948 312815 449
116889 800588 509
139736 313203 443
378074 392208 436
591696 1453 470
733506 371839 509
785017 213849 509
541500 162202 470
840530 277312 525
160066 26055 383
693759 159794 509
642167 690405 442
75642 753587 509
850020 761281 525
291543 367154 441
711886 515106 509
534449 995508 525
8688 381375 443
796086 655120 504
549723 670929 509
967693 239955 525
520422 98627 470
884063 765955 525
571155 682117 509
603017 715969 509
850751 951743 507
449948 172296 449
694085 787875 504
465487 506962 426
504497 848859 525
913794 237657 525
212636 574178 470
204207 435962 449
370665 834158 509
121327 697974 509
923354 805195 525
244391 891283 525
589456 921347 525
988109 222752 525
313309 138617 443
973338 42773 525
389383 596054 470
965902 555736 525
636380 357594 509
980123 229020 525
506733 626452 509
714863 478436 509
664552 821229 504
81441 500774 449
929814 896094 476
369847 253258 441
32301 452674 449
498450 170449 449
440083 80710 449
801143 527379 509
206704 263292 443
379962 487073 449
229742 479375 449
686857 423177 509
859088 722897 525
264786 373239 441
144620 701360 509
729618 224312 509
897734 157448 525
678523 618650 509
310539 322002 384
506433 672688 509
292583 139577 443
150274 766962 509
756675 491213 509
459408 429313 400
133598 377360 443
309212 186695 443
907847 846382 445
914112 217149 525
971700 288331 525
256040 913030 525
16322 594548 470
371166 909177 525
792394 687159 504
765938 184764 509
670300 822158 504
533058 174667 470
