161752 149016 383
167624 174904 347
24461 172271 383
246248 184198 443
170424 115144 383
72341 83539 351
3416 162479 383
69499 1009 340
95800 181278 383
227260 14472 386
207520 48007 383
161667 131281 383
82441 1190 351
185611 169502 365
179281 116317 383
201308 8839 383
202038 89555 383
144554 110669 375
20529 248627 443
209036 136686 383
192298 52124 383
99001 135116 354
93860 121386 354
116614 82522 354
110354 110342 186
178256 171375 347
132714 200625 383
135670 224959 386
191525 102403 383
64727 133754 354
182624 249764 443
177211 114360 383
30242 135119 354
105617 190157 383
206204 102905 383
135084 19552 354
64911 110394 354
107711 111623 323
228043 42596 386
185621 177505 365
79920 188159 383
175589 169123 347
94711 140561 354
93828 198588 383
103661 213193 383
60158 8184 340
249807 61101 443
189643 69075 383
11139 1436 268
13693 20507 279
129934 4500 354
194554 61057 383
152610 224897 386
20140 51931 324
219245 1121 386
99411 88345 333
187732 37501 383
171197 41879 383
94354 37143 351
155489 65311 375
214198 187414 373
238181 157006 443
34981 19081 311
65285 211732 383
78738 124902 354
4079 192460 383
14635 128635 354
9921 120571 354
218546 46437 386
210644 65391 383
137649 83690 354
26658 28013 259
110326 120474 349
203372 241776 443
220126 245963 443
87717 208154 383
87671 123909 354
240183 64848 443
198435 63881 383
144690 242500 443
69105 242383 443
75437 167051 383
27837 39313 324
131861 130794 300
128363 20732 354
30040 240896 443
3313 99127 351
144871 207903 383
169872 171081 334
108553 141576 349
16304 249533 443
174723 134623 383
241371 27180 443
4317 118252 354
119479 184547 383
101603 108384 354
193417 205347 360
172459 67260 383
11364 197664 383
165231 78051 383
55679 210288 383
151720 11163 375
73743 230969 443
131189 226018 386
235496 191710 443
89928 60627 351
166695 31993 383
133987 139733 344
132705 71816 354
210744 210597 324
154851 208717 383
213572 39871 383
17647 179243 383
105679 177492 383
71455 99991 351
38427 84674 351
175994 36542 383
232684 111775 443
124249 162104 383
156068 44546 375
80071 227321 386
114052 186089 383
157983 20753 383
208755 78023 383
134860 111291 349
96356 215473 383
210984 136749 383
176328 166358 347
225020 156115 386
117705 24720 354
97748 3695 351
48493 79560 351
240921 239708 368
220954 86614 386
100536 162846 383
196100 217302 386
173172 245566 443
149223 196116 383
68000 27220 340
153042 65456 375
9737 59008 340
238313 116105 443
177603 108733 383
217136 145916 386
184281 26491 383
223197 132179 386
26144 13604 282
109603 219224 386
187826 78851 383
182242 62527 383
1190 228325 386
120305 37181 354
4507 75757 340
130395 99837 354
65711 215169 383
107204 91813 354
96828 166614 383
171267 183398 365
237256 108362 443
168506 50754 383
154132 63760 375
175889 49755 383
142493 198529 383
118875 120061 305
145982 203597 383
98352 81442 333
217739 91547 386
20591 42364 324
32468 115126 354
194956 65525 383
15799 98280 351
49586 73258 340
85654 203760 383
227353 65353 386
89950 190230 383
222476 91389 386
200085 92535 383
179699 131857 383
231341 74382 443
58594 19201 340
174477 54853 383
213589 124352 383
58307 15584 340
63569 164752 383
29577 37911 324
209538 116274 383
61432 19763 340
56085 228977 386
58061 54542 322
82031 85247 320
146726 12747 375
120903 144526 375
241181 74461 443
80800 150947 375
244947 141550 443
246990 226232 443
186981 40782 383
123586 76908 354
152927 11832 375
32091 229162 386
53333 120557 354
160566 50639 383
202220 66214 383
220237 207010 386
132345 42533 354
222697 19756 386
156057 47685 375
72058 144707 375
52148 133171 354
146714 232622 443
169949 191732 365
183785 8780 383
236546 187036 443
155072 102244 375
154708 360 375
173740 159014 370
35702 220052 386
127367 174482 383
110464 101050 354
243976 33987 443
204818 61212 383
52847 71031 335
235523 2214 443
205565 155055 383
185669 152777 383
187480 78143 383
73978 171691 383
28917 63513 340
231571 25580 443
69378 63328 330
199359 149736 383
136265 129639 344
50367 199936 383
81203 169808 383
116654 3443 354
202324 95894 383
171889 221147 386
97092 39202 351
55356 89133 351
163262 24256 383
89365 133898 354
87414 208541 383
188343 194136 360
75607 231526 443
211892 122616 383
248321 146015 443
162233 243717 443
213213 230557 386
101409 176535 383
237040 93656 443
