311968 513729 470
723316 997961 525
924117 421695 525
807093 831173 450
711349 76468 509
201246 171767 365
845841 782147 525
668432 42976 509
863824 411812 525
65908 778991 509
301320 517131 470
348011 825671 509
946289 743667 525
107865 520805 470
403439 729380 509
470203 408187 449
947444 220875 525
759971 700207 504
866780 99817 525
376365 106828 443
951047 136238 525
532457 547949 452
2115 694876 509
235160 194059 443
886498 330321 525
619692 669529 509
759481 565532 509
355946 379582 423
544146 608305 452
597742 888975 525
410938 696145 509
151172 472069 449
544126 364295 470
646870 227253 509
215729 539715 470
775709 98840 509
412725 484479 444
401719 752837 509
903703 580398 525
548121 660799 509
809117 735385 468
831096 186499 509
535599 753058 509
242298 725618 509
211605 282997 443
918282 601928 525
32749 346162 443
321335 651954 509
446901 960433 525
660465 547234 509
117258 973568 525
843906 801260 525
127355 646875 509
29664 605154 470
225965 202116 386
827278 743877 468
861076 595229 525
531206 955187 525
57973 874161 525
434180 167637 449
338605 876459 525
788917 70578 509
727543 640167 504
298910 798341 509
660890 489042 509
92139 85255 333
335368 845458 525
115445 256090 443
844675 174779 525
480453 613955 470
663952 304115 509
571489 529819 452
576889 350642 470
257126 278539 407
737970 140605 509
202365 679109 509
327398 516800 470
952201 670514 525
860401 535972 525
645283 363000 509
466209 871481 525
631630 133750 509
970273 722577 525
570938 776944 509
345445 597626 470
487873 256717 449
802305 950997 525
899010 828443 525
678048 730937 504
706209 638569 504
481658 265517 449
245487 433522 449
356476 76326 443
30922 151026 375
135165 859706 525
994304 270327 525
366371 251844 441
738480 772737 468
583848 812751 509
69427 485835 449
487724 116447 449
824186 476768 509
583514 78287 470
587898 250776 470
332741 496815 449
724140 21522 509
56451 188742 383
577842 97786 470
675031 696682 442
154128 255923 443
403798 832506 509
487156 849092 525
19439 574406 470
795380 513884 509
18995 738540 509
204501 313305 443
533440 976888 525
777055 599293 509
737450 892314 525
203857 230147 386
482704 776961 509
498619 589318 470
256852 514141 470
12757 636073 509
754597 337425 509
996951 372776 525
118830 8733 354
367531 870566 525
963917 672530 525
660518 659470 354
168745 663313 509
846559 293083 525
620296 367284 470
707530 811541 468
667229 121303 509
34750 683329 509
77100 333288 443
931890 225375 525
556738 245435 470
266469 279123 407
947590 143258 525
566833 164597 470
425730 993338 525
273869 137228 443
204646 261911 443
135062 146691 375
271288 405221 441
978215 99503 525
861651 330432 525
659027 783212 504
319426 275881 389
225228 788960 509
287697 513200 470
223440 461451 449
995435 304121 525
897036 709422 525
355417 233045 441
271550 140070 443
390579 204932 443
229203 16064 386
568649 495880 470
857430 490922 525
6887 644334 509
866057 521514 525
705280 322531 509
611457 830173 509
598378 384600 470
39757 250825 443
198639 260055 443
982625 902933 507
719424 897559 525
935442 560672 525
258211 450387 449
251668 939928 525
359140 979335 525
206463 564071 470
499873 100708 449
218914 772963 509
648811 987611 525
533480 741930 509
76645 130572 354
537691 806243 509
369780 920857 525
578448 207299 470
536070 794076 509
587630 943151 525
939855 195924 525
482016 586787 470
341812 612663 470
958835 230463 525
341695 772658 509
449151 580297 470
299964 840421 525
705724 827646 468
936531 386085 525
826306 155588 509
332268 165520 443
470913 751156 509
648011 695328 442
153510 269625 443
105207 432731 449
108033 838392 525
686054 441844 509
280986 60013 443
575599 386087 470
44723 289056 443
293517 60223 443
325498 558747 470
151920 228491 386
609067 658656 509
160025 58322 383
798255 886243 525
2289 909777 525
518805 449648 470
863417 458094 525
809673 982894 525
514240 670067 509
314017 69723 443
836477 47204 509
551440 102535 470
246656 646684 509
407496 435371 449
228759 946912 525
847519 500111 525
566626 784176 509
964708 629260 525
468332 185294 449
751451 510161 509
457161 935987 525
185242 678385 509
87131 833587 509
612627 675583 509
767612 94856 509
859992 484078 525
996470 568590 525
848901 605226 525
373806 479229 449
793301 521301 509
313987 10968 443
663356 716371 504
735264 487629 509
56688 360346 443
578393 387838 470
8180 734831 509
336913 754887 509
319420 213610 443
109763 113355 323
986529 285393 525
437358 953112 525
538590 984844 525
